VHDL/Lab/full_adder_tb.vcd
$date
  Wed Mar  1 10:47:56 2017
$end
$version
  GHDL v0
$end
$timescale
  1 fs
$end
$var reg 1 ! a $end
$var reg 1 " b $end
$var reg 1 # ci $end
$var reg 1 $ s $end
$var reg 1 % co $end
$scope module full_adder_0 $end
$var reg 1 & a $end
$var reg 1 ' b $end
$var reg 1 ( ci $end
$var reg 1 ) s $end
$var reg 1 * co $end
$upscope $end
$enddefinitions $end
#0
0!
0"
0#
0$
0%
0&
0'
0(
0)
0*
#100000000
1!
1$
1&
1)
#200000000
0!
1"
0&
1'
#300000000
1!
0$
1%
1&
0)
1*
#400000000
0!
0"
1#
1$
0%
0&
0'
1(
1)
0*
#500000000
1!
0$
1%
1&
0)
1*
#600000000
0!
1"
0&
1'
#700000000
1!
1$
1&
1)
#800000000
0!
0"
0#
0$
0%
0&
0'
0(
0)
0*
